"","site1.sim","site2.sim","site3.sim","site4.sim","site5.sim","site6"
"1",7086.49314167808,4354.153457755,6100.93348109325,4686.76843062015,4920.95966054049,16.3333333333333
"2",6105.14295452086,3827.48252615029,5142.64585544133,4150.88212100938,4125.06894137489,297.333333333333
"3",6238.24534581275,3916.06735867825,5426.68993920941,4309.85285153086,4362.30999666774,58.3333333333333
"4",6061.78998495091,3797.73346093653,5161.5340377421,4135.14329012268,4214.3937728605,96.3333333333333
"5",11449.5937906765,7330.9523196703,10797.3160293426,8151.11936426019,9970.133350508,114
"6",13466.3589726992,8737.42553149896,12334.34099153,9685.76514921658,11402.4159768982,185.333333333333
"7",8320.03541703709,4830.46799078241,7570.67925900695,5228.70193728624,6720.19137921126,89.3333333333333
"8",6371.38253930825,3957.00316228976,5881.29493155437,4493.73382024824,5133.92259859081,51.3333333333333
"9",10847.1860565424,6671.1918302673,10430.2825193637,7426.56521766999,9667.61768966116,46.3333333333333
"10",7025.84200352376,4249.05675237429,6617.82852337677,4782.81208790249,5906.80435419173,416.666666666667
"11",4294.18560304255,2983.23595926223,3728.48653448278,3401.78733783477,3466.06229018818,367
"12",4431.16936242588,3035.32818434935,3855.79193735357,3462.5770283302,3595.04153462076,368.666666666667
"13",6973.80595728043,4073.99491143998,6276.99788529687,4616.09405199054,6046.25349863598,96.6666666666667
"14",3610.61875116578,2676.44187405237,3184.53126476298,2972.23085225184,3092.86121619345,259.333333333333
"15",5179.4664655599,3213.52040052226,4425.08646229084,3625.85754191706,4427.6795601342,53.6666666666667
"16",10585.1594434031,5586.2910703962,9919.71631390611,6909.33333333333,10002.3452399741,88.3333333333333
"17",6900.17054442099,3748.71182678325,6056.208107194,4398.11729282901,6205.41110850049,266.666666666667
"18",20510.9704737299,13841.411518015,18448.5461145733,17067.6276247151,19143.6322393389,185.333333333333
"19",12253.0422220146,6830.21391289621,11132.869187813,7924.56149847042,11461.1888872575,207.666666666667
"20",5950.41528833257,3259.36713487916,5040.58016069621,3747.21150453391,5499.43765069305,92
"21",5399.40272202484,2983.05004766979,4453.39497711804,3479.58985141761,5034.5592419574,120.666666666667
"22",10160.8153024991,4977.75163370032,9073.17261284367,5605.70040790358,9917.0592947048,242.666666666667
"23",7859.63164934729,3825.97289760193,6778.03760396717,4402.66539448403,7463.90429660358,43.3333333333333
"24",9881.44363594277,4641.90926418233,8482.67948577436,5164.01196422927,9388.57532989995,38
"25",10707.1301383158,5094.5248498416,9693.29714902526,5810.67406348461,10433.3754759501,36.6666666666667
"26",12318.4148919099,6174.88604534353,11268.7075022443,7385.91639391119,12078.7755642216,48.3333333333333
"27",10444.5925043632,5014.04176025297,9810.78040503959,5842.88777178133,10331.9900565193,58.3333333333333
"28",8700.33220342594,4213.87613366308,8176.02159553513,4922.05714689701,8707.74547296582,96.3333333333333
"29",14957.0607445601,7967.57562294054,14037.7770129213,9364.39711994761,14932.801731305,114
"30",17686.1930891582,10011.2482279712,16439.2956447877,12456.5325957711,17617.9306551145,200.333333333333
"31",4635.32302144237,2679.62141972922,4194.81675975044,2984.76247122967,4609.12014653776,92.6666666666667
"32",6059.50747688978,3050.88312454985,5498.91942698777,3504.1610798619,6009.4462542296,64.6666666666667
"33",5497.98008540092,2885.06277488676,5108.21800365856,3340.20429870476,5413.54248514334,90.6666666666667
"34",6048.15059704298,3085.28578951331,5816.7683214345,3619.41436724133,6041.57427206123,184.666666666667
"35",9695.62358802196,4640.04161318907,9520.16486736405,5204.31131044538,9653.77618017546,345
"36",10513.6115899302,5114.63621663088,10518.1351080181,5937.29748799971,10458.267682745,345.666666666667
"37",5397.06160093748,2893.53539393386,5436.77874459807,3397.36318987189,5366.88250725522,156.666666666667
"38",8652.35118215171,4301.68576650073,8983.18390863238,4910.80551313363,8654.79088106365,203.666666666667
"39",3169.80465489251,2331.85463267976,3345.90104761003,2606.00757376121,3118.24153020102,58.3333333333333
"40",4091.7268020381,2618.61938288191,4484.51641630385,2904.33318938586,3944.42921903463,96.3333333333333
"41",6902.57133587189,3641.72127660011,7740.04680376804,4235.15806221954,6802.68666584286,114
"42",7222.09620956079,3816.7208027676,8308.21465027305,4532.19021243608,7031.68468759217,185.333333333333
"43",4601.19377586647,2830.60482265826,5702.7824547306,3360.11225231725,4442.29039960065,84.6666666666667
"44",9708.99309053693,4970.00227718294,10857.3251432954,5700.82896815656,9367.55321146429,53.3333333333333
"45",8226.35835937363,4330.0108367204,9693.62803309026,5023.82382330733,7825.45170877702,24.6666666666667
"46",14814.6622732489,8714.7314924539,16989.644546633,10843.6357014347,14054.4780282023,23.3333333333333
"47",12202.9804537773,7139.3854822971,14153.8143906789,8121.26761802977,11453.6210685961,633.666666666667
"48",10767.9377033336,5694.04512828982,12209.4243355118,6811.57693606449,10091.7451383702,642
"49",7100.5302316174,3966.81541159079,8864.42963505293,4562.91025631817,6445.35639908673,118.666666666667
"50",11857.9892485577,7139.19568050975,14190.5076388504,8018.55198892086,11178.2013208679,108.666666666667
"51",5917.20256019537,3481.21313411639,7577.26303548695,3847.3809460446,5136.85887281538,51.6666666666667
"52",4165.08718012093,2817.66939988199,5821.64458446486,3093.12529200867,3591.76893869453,40.6666666666667
"53",3751.60669181536,2722.70909070105,5371.29142223925,2953.13472769539,3258.86807783182,42.3333333333333
"54",3307.13328187056,2607.5108152858,4621.14825831308,2750.22795605822,2866.00104226462,128.333333333333
"55",1306.9803086032,1846.00346081998,1861.92010522284,1986.36305377496,1162.16470733677,53.3333333333333
"56",3244.10913032399,2592.18496761735,4586.76034782577,2750.39138536859,2805.23910945811,17
"57",5074.4273254124,3253.62758677744,6833.07168789829,3641.4953755054,4214.14911225035,0.666666666666667
"58",2088.23999211974,2126.09205301955,2865.1430542732,2318.91802885002,1766.64144421173,292.666666666667
"59",2872.38659061501,2373.68625242367,3888.61128778295,2615.98436873702,2364.36093833549,302
"60",2766.75963547533,2355.78372170486,3651.48444131438,2597.6789470221,2247.30713933801,306
"61",3571.14378690167,2660.29048306385,4919.75487416533,2897.63119633485,3054.48678383877,21.3333333333333
"62",2136.42137556008,2125.19471585399,2849.09968998133,2323.82605077238,1770.87952362871,28
"63",2920.89808542365,2378.02789276021,3802.29923227923,2672.92396013013,2390.73092540576,783
"64",4501.74326883626,2922.43790726811,6025.32360970454,3390.19745299793,3634.89621509555,40.3333333333333
"65",3951.57064604992,2731.95667393509,5366.13238139536,3094.49427423188,3272.82635971173,92.3333333333333
"66",5085.73942886309,3088.83597308716,6481.69707661961,3638.86516425285,4154.03405942064,150
"67",230.874401090224,1457.63278822582,542.290131100923,1600.04986994022,129.48633458951,69.3333333333333
"68",244.34859787451,1463.51583071051,538.255201072807,1596.96216591885,139.78630489182,44.6666666666667
"69",3114.45219027397,2370.2087299344,3726.64451554058,2663.66719167902,2628.66419096929,19.6666666666667
"70",2754.65619979906,2298.69051223306,3257.22691731314,2466.27514992152,2195.72557902942,17.6666666666667
"71",5142.52634670334,2982.93870840185,6050.29785427347,3456.85314265685,4219.62046706422,724.333333333333
"72",5841.64566429853,3262.3769426107,6507.45249361432,3603.00196196289,4804.95215097402,734.666666666667
"73",3225.41104267013,2365.49585651539,3601.20053347884,2605.09546475767,2800.17039257777,31.6666666666667
"74",2210.45364767283,2116.24942380586,2406.40105889943,2225.22024847305,1898.38614992519,41.6666666666667
"75",2346.21513213283,2125.39910142413,2512.31465989717,2225.64785690468,2046.02556539458,369.333333333333
"76",5514.48810300141,3035.63959575715,5665.78725730793,3242.75283039889,4605.97312854623,96.3333333333333
"77",6901.53981341231,3584.20647527231,6901.42248462747,3662.67417555198,6037.2765713798,54.6666666666667
"78",9445.70273234924,4637.46271553534,9364.54012393331,4739.87328753648,8389.79525458006,74
"79",4660.58664790292,2789.86624738992,4600.28581243225,2873.13189923713,3991.40881288272,53.3333333333333
"80",6276.74282741998,3408.89684503489,6060.06009668517,3474.02515951099,5497.75026775018,26.3333333333333
"81",13624.711819774,7427.35445403263,12789.8888128247,7595.46137163656,12468.2147251129,25.6666666666667
"82",17001.3333333333,10077.3181931485,15841.3766611337,10089.8298938016,15864.2403561889,17.3333333333333
"83",16363.546814418,9484.20198157385,15136.9433652231,9480.63149535186,15531.3018590413,645.666666666667
"84",9542.92318475208,4663.44298856981,8399.66901561051,4641.80890638177,8704.51174520517,655
"85",3712.85876505349,2581.47589371866,3116.76827891727,2531.83685322279,3454.89487175838,29.6666666666667
"86",10967.0484904599,5450.65179199892,9999.60182191283,5425.81511038115,10517.1637221598,39
"87",12146.0780176653,6527.81178629046,10912.89309798,6338.53456621468,11546.9775188255,47.3333333333333
"88",22338.1227849111,15165.1292077971,19346.2860744753,14863.0848724616,21477.55195092,558.666666666667
"89",20514.2791758374,13451.8572398787,17131.4172758596,13246.6359748256,20226.9340518116,114
"90",13957.4429053506,7823.65910903557,11849.2312646807,7596.87778830477,13812.3217062182,185.333333333333
"91",8431.90805992863,4403.54918713829,6987.35208756224,4391.15670188706,8430.60230742385,207.666666666667
"92",2373.33029956274,2204.97853358995,1854.77535970386,2179.91246621443,2373.74300774785,288.333333333333
"93",9926.96701979689,5054.0977618066,8320.43353863186,4994.40065634716,9981.80432220279,62.6666666666667
"94",15651.8286507754,9368.85856578848,13947.3055789846,9479.52023693898,15973.4168924371,163.666666666667
"95",12748.9429127009,7379.51171944057,11300.164382232,7404.48315744283,13029.1403372896,149.333333333333
"96",12416,7275.27129748425,11094.1352340286,7290.5972995014,12727.5251785726,146.333333333333
"97",25755.1857022855,19771.7613350221,22533.4131527087,20670.9406085675,27127.5730633519,97.3333333333333
"98",16609.2644265145,10776.1393116431,14819.9667970303,10928.4651877229,17037.0415244528,45.3333333333333
"99",14801.4985894091,8834.10170568391,13234.2963180095,9261.73494570701,15307.7504188743,135.666666666667
"100",11104.79259901,6307.25295893607,10315.1971711169,6673.29264221717,11440.1339351777,110
"101",19576.063057427,14455.9890053455,17900.6904089026,15536.2902551611,20541.5719299103,55.6666666666667
"102",9783.21630401814,5153.68311854473,8531.67980832754,5410.37007629803,10135.8006913383,176
"103",2853.84462377786,2359.95291603977,2385.93378407672,2543.63788264218,3055.24868363628,94.3333333333333
"104",8386.24826617165,4616.92333511819,7717.35003556887,5028.13656085984,8724.37045588468,76
"105",10453.445315092,5692.34895945061,9928.20374187061,6373.53345172779,10850.7478071717,44
"106",10270.5993141798,5526.82773348083,9795.10756618313,6309.9126969212,10818.9344477265,274.333333333333
"107",15759.4257381041,10372.9859633682,15077.0083312791,12016.0904034603,16639.43254248,689.333333333333
"108",12992.3003946205,8029.1770799127,12461.4875206108,8771.14420243558,13979.0872249568,36.3333333333333
"109",8393.17016013693,4639.64108229381,7988.17816407063,5053.98715521712,9253.93416025619,34.6666666666667
"110",14256.7523538471,8741.53762035325,13626.8871215742,9545.59911663658,15192.2347269326,45.6666666666667
"111",15351.1832487851,9560.42288722373,14493.2035679468,10736.4540964575,16257.1578001273,55.3333333333333
"112",23731.4478761317,18510.0901356689,22147.1036017952,19765.5073725441,25184.9599315521,91.3333333333333
"113",19347.3280073493,13573.8001653239,17796.9792908373,14245.2479589933,20503.5477752667,108.333333333333
"114",12556.5531633419,7298.14406759211,11473.7731111324,7405.41306415256,13241.6192373649,176
"115",9101.34988212673,4757.37659718374,8325.54238598327,4923.25497376777,9865.73390318364,197.333333333333
"116",5358.83996218072,3119.45037373636,4516.91070624325,3151.14270619091,5882.27723051019,80
"117",4205.67923167861,2737.4045647184,3561.23752154194,2731.51066797013,4695.9889422784,44
"118",2388.44147581736,2224.24523490424,2113.70641530909,2205.54110465583,2829.0805451319,533.333333333333
"119",6560.51284996445,3593.41101237412,5499.24281013245,3477.00583524014,7043.85294539273,436.666666666667
"120",16276.4946066215,10069.7896836365,14474.0892607035,9388.20051260132,17311.3362959486,36.3333333333333
"121",13829.1931327234,7746.42296003365,11665.1072215443,7328.18544934092,14485.9588520781,34.6666666666667
"122",11707.3566243248,6317.22699419146,10206.2847207924,5777.19005254787,12434.4502039631,45.6666666666667
"123",17123.6417157057,10368.7728264393,14248.076045118,9277.42939453087,18388.3512582332,55.3333333333333
"124",17956.3717416603,10776.0642347619,14535.6703257814,9542.65572275185,19055.4657549758,91.3333333333333
"125",18206.1624837312,10878.4149941297,14492.1892435602,9479.22826436435,19232.5098756496,108.333333333333
"126",20798.1455400111,13337.0941482988,16174.4426509728,11449.2902253094,21703.9332552113,89.3333333333333
"127",11337.176679077,5588.49424777349,9006.40221827482,5107.52110790208,11639.9013459374,92.3333333333333
"128",10079.135305727,4778.47660298077,7284.67123678926,4389.65417928425,10336.6347214596,66.3333333333333
"129",3794.8007430447,2549.68889085681,2527.12213080207,2359.69413168491,4147.6645380055,69
"130",8005.79296847791,3915.85807172606,5732.34091166701,3642.82757150243,8393.23596767992,1159
"131",13627.9894491691,7326.56933250852,10865.6239024654,6811.22981217954,14110.0959470735,41.3333333333333
"132",22011.313338388,14268.075254283,17004.3886931509,13348.5102613623,22797.7657245972,36.3333333333333
"133",11453.662330669,5918.75621574856,9546.44683878608,5511.46473151488,12148.7385772003,34.6666666666667
"134",11925.2097600719,6336.73276109423,10088.0225569204,6022.94072665941,12699.3626052219,45.6666666666667
"135",4208.60282376062,2670.38525233193,2883.33178402599,2613.48249735117,4596.82185270834,55.3333333333333
"136",10063.7941148275,4996.53811311799,7995.36953435696,4923.04162482027,10484.137633775,91.3333333333333
"137",9303.73702524692,4639.1266466269,7283.75436224611,4679.13314784336,9875.32805871287,108.333333333333
"138",23069.1894249792,16729.3130756611,19678.2660685452,17320.2936881696,24491.1505884998,176
"139",12571.290028569,7205.67005327641,10980.8929883137,7418.64171947012,13301.348087911,197.333333333333
"140",16114.1481157559,9541.80351101029,14053.9291397777,10747.9086045076,16930.1433229892,182.333333333333
"141",19249.1541743244,13040.2355233867,16691.8882449862,14733.7560877272,20528.4048923587,60
"142",22974.8051615125,17537.4733626541,20845.4648097371,20844.4386678557,24753.955251536,37.6666666666667
"143",25989.5231424364,20863.0396520926,23378.2000925074,24286.6964481217,28488.2363597714,236
"144",23695.7086986651,18518.5208196116,22169.193083771,22935.2587697795,25552.4876916664,234
"145",30816.967639971,23590.2753179556,27857.1759689522,36691.7808708852,38183.6815513149,34.6666666666667
"146",9290.18224789211,4958.4793472511,8861.94915835663,6307.07463799312,9964.1740225694,45.6666666666667
"147",13006.0398197178,7823.86506640649,12721.6988190194,10409.083201445,13816.8202139238,55.3333333333333
"148",18403.3766859638,12972.9968813306,18146.684017718,18794.8861855818,19346.0519958876,91.3333333333333
"149",15303.3233380941,9372.22509194245,15002.4153716656,14278.9790612036,15840.8339054651,108.333333333333
"150",19376.1406498468,13676.5165035403,19087.0869081324,21426.4778839488,20359.9672534021,176
"151",21418.5822952039,16164.2611781673,21404.9838618958,26220.1324504039,22237.7381035353,197.333333333333
"152",10456.5590450358,5435.15650974903,10457.2033734861,8407.53911922358,10698.7754398803,82.3333333333333
"153",16206.2840813853,10246.7284160884,16284.0204345788,18233.8691664172,16362.0015964282,224.333333333333
"154",7953.93460843143,4251.25191140877,8253.6313688822,6417.88868052822,8140.54527522556,72
"155",13658.1970130318,8109.25081598628,14190.5085805926,14253.7609661319,14038.9954642756,436.666666666667
"156",9695.77111745486,5061.73236459482,10306.1585130534,8415.92254559976,9848.56329279472,36.3333333333333
"157",7128.75083752024,3927.65790935226,7884.67802788726,6320.37489274643,7142.69350212175,34.6666666666667
"158",16708.0033007581,10876.5279792179,18359.7038010439,21305.8528571678,16616.9420561836,45.6666666666667
"159",12097.3523082156,6909.33333333333,12993.9958934624,12713.2891161171,11918.8822127441,55.3333333333333
"160",13623.5020847012,7823.53907777815,14811.0658069619,15080.9240094101,13498.795552491,42.3333333333333
"161",18817.190709632,12635.6967345384,20621.9919564152,24417.6986077257,18617.6849665725,41
"162",9706.48795320498,4923.47681450359,10632.6842317339,8593.15317959129,9539.01973443782,353
"163",12416,6909.33333333333,13800.2194402648,13126.2863529639,12149.0748039956,60.3333333333333
"164",11465.0169787496,6010.76582974498,12615.7174962859,11399.9243701636,11268.5093933569,261.333333333333
"165",3085.00745562983,2330.23015105724,3595.83304881864,3474.04987606369,2879.01498482364,69
"166",3592.91230861754,2462.4067060382,4277.24622714976,3810.14194075628,3348.60669572614,179
"167",2628.78812131336,2205.17174352397,3120.06812314588,3081.31533691447,2346.0020752547,480
"168",6799.17697097351,3504.93809053206,7857.52797959695,5535.94202005928,6280.02215092964,29.3333333333333
"169",4647.29629098069,2748.92873108064,5755.81369556491,4366.84015790821,4406.5771973375,22
"170",7015.58542963355,3640.67409323722,8183.00612020392,5692.12546518298,6715.05870339877,37
"171",1628.11760732139,1835.10872009554,1865.97370102691,2333.03028581581,1531.23347503929,644.333333333333
"172",1013.9155294019,1624.16993378862,1274.90739971746,1988.65924084864,743.394461280986,96.3333333333333
"173",6330.58970423598,3389.58915290538,7270.99631241888,5009.37048133281,5994.57880275952,50
"174",11268.5496156571,5585.55841948882,12156.3325004843,8769.28341887634,10839.4573392152,64.3333333333333
"175",3683.19670032583,2511.85721083564,4420.53455156229,3453.88066367264,3433.71745407488,51
"176",2363.97146612089,2122.05750144103,2864.62212720804,2671.13252120943,2181.90164935199,25.3333333333333
"177",3055.32437071569,2318.95807917868,3496.11399349203,2893.85324211771,2782.2212467504,10
"178",6280.58848621744,3364.78481554265,7089.12398070565,4708.24324907927,5826.05583137171,35.3333333333333
"179",10501.3005050734,5169.02753466712,11301.1965168455,8007.2062056404,10037.1684864254,732
"180",3532.17433041937,2486.57603684852,4235.47031197498,3397.33154325875,3195.32139607753,399.333333333333
"181",4377.01928571906,2705.62270809964,5364.86814009312,3758.54695698934,3770.0263224453,26.3333333333333
"182",10848.7655078922,5481.56842283987,11889.6990096186,8399.34008290068,10469.3153521421,53.6666666666667
"183",10863.5485975018,5516.61282671303,12151.7206814979,8593.80498528389,10458.1974874519,745
"184",3722.2596379229,2616.89246781009,4969.39713717541,3640.74072998503,3513.22144685771,96.3333333333333
"185",13423.835284655,7540.89677092429,15308.1097003353,12666.7054032327,12427.1687160633,80.6666666666667
"186",22340.0882297849,16239.0906656842,26703.9509661794,30643.2015137367,20831.7523980871,213.333333333333
"187",10765.3446977959,5571.0189175093,12156.1831767369,9055.18935943206,10225.2112518296,96.3333333333333
"188",3312.54154143402,2495.50582401925,4428.25321465106,3621.34912727361,3001.8166441842,76.3333333333333
"189",8525.21335387552,4616.00014036107,10449.1021620272,7397.83043393739,7995.70247982736,660
"190",9460.92091682151,4956.94545444698,11003.9501895208,8213.77572793618,8516.72534636176,211.666666666667
"191",10324.7761786739,5287.60860410508,11660.5707688321,9164.25530101955,9679.15948354229,43.3333333333333
"192",9006.61162818446,4715.96391961318,10781.8992875028,8188.18480515332,8226.54776962876,38
"193",15576.6349774564,9525.46937700848,18640.4027072687,19338.6955476373,14262.5247483282,17.6666666666667
"194",10231.5227153587,5281.63109157751,11672.7915627658,9849.42454753672,9276.46577394041,155.333333333333
"195",12880.0481291208,7462.29838253589,15360.8198775605,15821.6154994936,11651.5877584522,104.666666666667
"196",7859.72984290364,4231.10412233365,9875.03986240759,7670.78023917291,6885.75607540542,96.3333333333333
"197",17274.840391957,11706.5507646718,21189.2246575571,26454.417844701,16158.6401390467,45
"198",18980.0891367567,12971.586991704,22503.124311029,31988.3150515404,17136.9848355876,257
"199",12838.9873804711,7365.09434019557,14992.9729770432,16255.0093265597,11689.9766973999,56.6666666666667
"200",7756.58039258791,4095.71478543682,9272.33520183116,7663.11864437681,6901.86480413616,34.3333333333333
"201",4158.78491097707,2702.49301833095,5351.76330971888,4839.1839167244,3604.09091726378,16.6666666666667
"202",7863.732608273,4036.76714889639,9098.34309441443,7805.94123024211,6965.01082217343,427.333333333333
"203",16546.2692334857,10051.027030101,18857.5060332136,24309.64263638,15569.0571550757,748
"204",13977.6027178797,7724.02213910292,15306.4045985636,18513.5773518185,12920.2412999529,431.333333333333
"205",16461.290491625,9480.03785538502,17902.1636425638,24162.8510572199,15440.5359768088,33.6666666666667
"206",16265.7325817543,8944.61558429165,17003.4075987153,22956.5030997315,15248.2286626867,44.3333333333333
"207",15537.2423397177,8221.36927076139,15766.0555941273,20987.1166836947,14415.8484883213,133.333333333333
"208",9362.73856921072,4275.76017932058,9275.1946895681,8774.14504901635,8418.66516365249,172.333333333333
"209",5143.82663723859,2726.8963841577,4811.80476793569,5138.78443311165,4507.52533474266,114
"210",13091.8328035082,6676.80419234133,12792.3639218349,15712.4066578776,12252.4767465922,185.333333333333
"211",10897.1086698441,5086.99360965049,10589.288891291,11485.6762608152,10424.0145364996,107.333333333333
"212",3055.59632502894,2207.10079752625,2848.56036161211,3784.62661196072,2738.498769048,83.6666666666667
"213",4690.79949381332,2616.46757292475,4206.88846319206,4907.97998168463,4203.65686817097,403.333333333333
"214",10503.225559544,4684.53168041098,9884.99748379519,10118.9512320557,9913.66037246277,92.6666666666667
"215",18750.0331992894,9683.24673206206,17075.44793228,26553.8447698978,17192.5129344133,106
"216",41284.0479924826,21181.9433217653,31344.4536837712,98474.7444306597,32414.3541531231,130.666666666667
"217",13956.9460563814,6705.14509967935,12577.9761860489,16206.1683431859,12952.8300189375,67.3333333333333
"218",12185.3085167338,5588.89939324762,11267.1985689388,13698.0560542757,11460.1249755797,48.3333333333333
"219",15744.4877249454,7991.19967728789,14495.3475785129,20887.8791750325,14967.3287902646,28.3333333333333
"220",18803.4212010906,9851.96750116746,17123.2474935575,27382.7356235318,17538.9384534896,202.333333333333
"221",9053.58413382479,4049.93917676251,8280.06907111663,8418.14827125579,8405.0053927734,128.666666666667
"222",10877.1710157188,5022.67627241671,10421.3525062204,11446.7836548682,10571.7613704925,185.333333333333
"223",7880.11074183334,3653.5011133157,7295.66148654158,7442.11005950557,7544.6946581843,94.3333333333333
"224",6233.72966258023,3083.65002245519,5977.97846830709,5965.42967845839,6010.5462207302,78
"225",4585.02593826053,2616.73853425799,4284.87730071589,4741.20596655583,4298.17648510868,390
"226",11383.3712539447,5385.17241793837,11251.9342140237,12408.6618852585,11104.8845784376,222.666666666667
"227",15113.3956447592,7900.8820050888,14966.6846488433,18850.2138654795,14473.9776184825,152
"228",19540.5078894002,11463.1037983532,19550.398575885,28608.3699410259,18814.1668619959,38
"229",12619.3003429659,6339.44326457967,12597.2012301005,13690.319603148,12154.2078257241,36.6666666666667
"230",19061.7550007267,11285.8057688251,19509.5760966834,25570.3161737223,18383.4981261499,48.3333333333333
"231",14063.3296181281,7598.04207574124,14805.0561177973,16364.6324880687,13799.9470303219,58.3333333333333
"232",11419.3251956243,5899.00307852688,12084.2948972055,11304.7065527305,11267.4865048467,96.3333333333333
"233",15550.5699630467,8741.79837824217,16311.2068708424,17914.6461195247,15256.1931447604,114
"234",65922.6819367474,38165.4926392091,85124.0664791954,105183.757158396,64156.0592570804,185.333333333333
"235",12082.8302742272,6681.24182061346,13011.8024388408,11818.1595131319,11748.214507753,207.666666666667
"236",22359.8117488279,16322.2294627439,24716.9757081912,33335.4226389199,22186.2436393998,85.6666666666667
"237",13637.1031185233,7944.34396421428,14980.566040411,13606.1095541068,13541.7644835845,402
"238",18588.7459130876,12969.1185093966,20882.9303889318,21760.0973214948,18519.6229407165,335.333333333333
"239",28824.9759306683,22526.8066368063,41267.7986634771,53883.1116529969,28335.7296945078,43.3333333333333
"240",24388.9015262447,19568.7375772574,29464.2600317497,36355.5101519685,24370.3085858739,18.6666666666667
"241",20425.7275758076,15001.2225035677,23036.9313824861,22481.7589226295,20361.5961999451,17
"242",27404.9305753525,21947.984812374,35877.5352538902,36540.9355748212,26721.002055563,138
"243",93713.0748160204,73371.0781009801,118680.893553208,104712.234397915,92493.277519665,213.333333333333
"244",56451.5804057894,45707.2311815617,81557.4609613139,73202.4752358199,54680.8219968352,96.3333333333333
"245",20598.0173343945,15955.7418490497,23370.0375468863,20918.7773581624,20528.3677774857,114
"246",41227.9285205313,30412.5941805436,52000.545287912,46570.3103272412,39163.4610768174,185.333333333333
"247",13556.05725478,8484.65447962686,15281.9788807122,10158.7168184436,13490.5382027707,190.333333333333
"248",11512.4163510761,7239.91786853394,13100.0472225001,8157.56894457149,11456.9300086099,85.3333333333333
"249",12715.9595847782,8160.48182328939,14835.8378264842,9221.35683090105,12778.6256221069,302.333333333333
"250",16263.6885311719,11802.1638748803,19225.7647407098,13679.6215593641,16275.3122288286,236.666666666667
"251",48174.7278973459,43509.0632620417,75940.6417743795,56046.0055666214,48464.4311397079,199
"252",22225.4992017507,18679.5469992283,26228.4649845783,20752.6705223118,22504.7810887203,38
"253",13977.938772435,8945.43645043897,16065.3823805825,9641.74024892021,13985.2135885132,36.6666666666667
"254",17898.4919009763,13401.0589258172,20531.275127116,14514.4528301391,17831.302432305,48.3333333333333
"255",17214.9922732372,12923.2470644466,19770.5485425067,13695.3744854771,17199.7028506442,58.3333333333333
"256",14638.4351369104,9566.27455828106,16395.0965241846,10763.2288489658,14783.8552039021,96.3333333333333
"257",30614.3975464532,25756.9256250567,41708.580862979,28785.8514566849,29919.5286329719,114
"258",31084.310318614,26193.8569188782,42921.0980157395,29783.8624821184,31050.1426966811,185.333333333333
"259",16460.1357950604,11712.7435021693,18873.1375916493,13240.4670496903,16459.8004390263,172.666666666667
"260",10706.1867169166,6006.88589758368,11665.1058108211,6891.60638912992,10716.3047391465,82.3333333333333
"261",13996.8967391722,8747.09979767344,15852.9338155756,10110.9150767352,14032.0356299723,452.333333333333
"262",13372.5630384991,8318.14800249077,15182.6675382308,9418.80413850736,13618.3480637792,189.666666666667
"263",11337.2814050156,6909.33333333333,12988.8027342203,8024.32268938545,11449.8542336499,150.666666666667
"264",18504.6751345589,13582.8387731287,21532.7291471494,17298.6727905068,18873.5603490283,100.333333333333
"265",17388.9887825193,12922.9903050173,20643.9603482572,16289.7161138454,17901.0528281095,36.6666666666667
"266",17003.5210376605,12227.893021577,20381.1346211288,15825.4074955857,17149.3554990796,48.3333333333333
"267",30039.1685082773,24588.2106745343,44788.5973178665,36644.89488018,30500.3105873597,58.3333333333333
"268",10485.7542844696,5989.00037523842,12033.6669307484,7428.42632239648,10578.0518413744,96.3333333333333
"269",13987.6469915807,8832.59641765051,16331.2380584413,11869.0553478429,14056.1861026771,114
"270",17265.1137840566,13213.5488335266,21120.0908538615,17119.9986994032,17306.7580213819,87
"271",10173.6690552866,5593.46743331281,11537.3164788959,7318.18302390259,10048.059759642,78.3333333333333
"272",18055.8034106558,13355.6246030561,21450.3489541287,17640.1501332432,17790.2552552437,145
"273",12715.8510606412,7882.9527216417,15128.1663265524,10359.5662170136,12596.9254308916,271.333333333333
"274",24786.7213563246,20759.1847700665,32930.4221545532,29610.3594991765,24643.4389683347,464.333333333333
"275",19433.2122500603,14274.3422573341,22987.8125205579,19359.5373607826,19136.1486071255,370.666666666667
"276",19544.3613545494,14352.1125602768,23034.780036489,19764.2944815985,19199.9579782236,38
"277",14191.0271123868,8769.00950627351,16431.02063518,12512.1700775336,13970.7015906713,36.6666666666667
"278",9258.90373848758,5047.68217955073,10830.3869522303,6699.50260321459,8895.03841157062,48.3333333333333
"279",13574.1953427566,8268.3177927935,15742.5403108983,11516.5213264493,13105.2904740939,58.3333333333333
"280",14970.8814224986,9566.28866255295,17357.2230445385,13689.5539275577,14688.586347814,24.6666666666667
"281",38084.9716723661,29331.0243502403,56772.2899704999,55662.2886137254,34135.9645621904,0.666666666666667
"282",192517.449608809,187468.715149983,257000.437491249,234570.988068518,186327.587263164,0.666666666666667
"283",41255.9627599085,32188.2141916525,64121.9140945208,58343.9300087579,38319.1399039243,0.666666666666667
"284",11240.0964562429,6880.03247200403,13091.2888916871,8447.72297407758,10999.8157593927,0.666666666666667
"285",11237.0203373254,6941.39287450768,13308.0977285019,8375.00003149225,11030.1834857942,0.666666666666667
"286",21497.6578855768,17853.8701065724,27131.0773893013,22443.582468387,21143.8875882996,0.666666666666667
"287",12727.6419519306,8265.37479479699,15557.3802449397,10118.1255803375,12579.9028740899,0.666666666666667
"288",24061.4449787126,21552.389251267,36610.2312614335,27007.9880769858,24023.9554714525,0.666666666666667
"289",24325.3616522814,21883.1484761317,38258.5137189993,27431.0019399657,24332.6515052551,0.666666666666667
"290",60993.5344678184,59158.0730043768,97101.8753534874,72723.0082676659,60971.4015360705,0.666666666666667
"291",28367.4878430984,26096.9787313886,46493.0240749602,31212.5370418003,28554.3093405007,0.666666666666667
"292",30766.7462643572,26583.7634258835,48378.5074520712,31594.0337956379,31056.2024023751,205.333333333333
"293",109859.994189941,97835.1589323367,136469.636067666,100674.922251087,110095.408211912,901
"294",91625.4600616002,73092.020185789,121317.361261932,79720.8622178796,92001.4864517878,688.333333333333
"295",11889.4612145453,7350.84067048229,13947.5561740898,7592.8507184726,11935.2533126748,179.666666666667
"296",16156.5014859487,10756.1902882062,18644.4492473597,11332.6970845155,16171.7787498506,328.666666666667
"297",10666.2745162199,5964.03416912686,12026.3284241634,6168.34524367215,10692.6560201164,59
"298",13023.0302000723,8037.54041329239,15113.9732735961,8230.6382443472,13085.8443385091,37.3333333333333
"299",14190.5170394838,8680.73011865303,16165.8361491977,8771.28265881553,14117.6502497208,304.666666666667
"300",15606.9665198611,10015.9805727498,17708.6200861415,10391.7579933907,15689.4984849882,129.333333333333
"301",28325.5217908705,22481.0984961116,41312.7505772363,22629.973046986,28884.8724968582,113.333333333333
"302",24099.2390266455,18719.8532417828,28250.3080912549,18702.2800793487,24143.0266589515,30.3333333333333
"303",25236.467975458,19764.9050913836,31377.0218633587,19763.9497470473,25366.0297581075,104.666666666667
"304",14226.4658907584,8429.99608988221,16155.7164000493,8594.20714757693,14211.7038687755,46.6666666666667
"305",22416.6122356003,16536.9175503891,25368.2008712936,16756.3940316368,22331.5264088353,205
"306",31874.3400318656,22647.8612972477,43638.191169368,22991.6932067491,31484.1734822092,185.333333333333
"307",7562.89986485596,3921.0702020939,8578.23202395166,4081.71206239426,7566.97322801622,207.666666666667
"308",3642.42869704179,2588.58884505747,4597.47840258589,2653.44122842677,3646.79828454607,89
"309",9967.49675081408,4860.74825478353,10866.8520125138,5126.99327442216,9916.05968415292,112
"310",15881.3267935571,8872.2270123163,17701.1609733319,9745.46900159544,15835.9276101605,76
"311",24296.7435239843,16991.0566037772,28750.6288793856,18839.0769115528,24304.635083225,205
"312",9037.65799056735,4405.20901950166,10318.3329666828,4861.55270172584,9077.32886767682,25.3333333333333
"313",5592.29485702972,2980.74606845182,6712.19437403818,3355.21477024568,5668.86427445203,20.3333333333333
"314",5677.66027978665,2948.65728486084,6705.25944190166,3408.44612528314,5713.56083694771,50
"315",12887.6791376627,6477.25754251537,14305.4641749497,7823.82990413942,12929.4238598997,59.3333333333333
"316",4605.39050568798,2655.15673576403,5656.38078338184,3051.95798528892,4599.11796958836,183.333333333333
"317",9373.26834891361,4311.22209580994,10334.4960650479,5113.57111868053,9367.59084875134,205
"318",11527.2445891179,5394.14784412972,12652.7805745248,7091.35197685861,11448.4020695431,90
"319",1745.72858308253,1801.96025651487,1941.05568563243,2008.32211837729,1731.30919102699,91
"320",3927.89365269731,2391.59546342346,4597.67305324806,2809.61639136609,3727.62288688287,85.3333333333333
"321",2075.2916211975,1956.2627302035,2343.39911769591,2201.28500366544,1961.55619652992,236.666666666667
"322",10477.3136939425,4683.81576191217,11199.7912265434,6108.3872640883,10324.4296812844,137.666666666667
"323",10354.3620176722,4616.24322226749,10983.043561419,5927.58432492502,10272.0671521698,132
"324",6630.47202602077,3055.28292334044,7239.79418038363,4024.37832716538,6473.8207666734,160.333333333333
"325",9352.7459587942,4072.36056968149,10091.3770021632,5266.99980266045,9274.95999298671,145.333333333333
"326",11209.140813702,5018.88366933841,11690.4536640143,6830.84695131554,11018.8551605299,25
"327",4449.11812929994,2473.3022427713,4957.11349902613,3029.22771314569,4362.36354659863,121
"328",8229.51156548749,3623.68347973278,8673.75928983191,4639.23112538623,8071.94838975094,46.6666666666667
"329",4569.09549778699,2496.4759275434,5010.49712466534,2995.04560765024,4444.89443915369,282
"330",18092.2176053793,8834.29525924076,18817.7623673926,12876.3651269657,17720.5211157896,83
"331",9232.23336300344,3913.09702539633,9411.82686420458,4866.30299673911,8982.85022685012,76
"332",3317.53937727286,2215.58026293216,3482.32449154714,2540.97798084662,3255.86259416799,60.6666666666667
"333",4619.49492364084,2534.38603899022,4680.92271464417,2885.22776318024,4533.77665388972,61.6666666666667
"334",10443.7992350463,4538.82035337571,10479.1282287412,5203.52305412709,10132.712555417,234
"335",11452.6366487039,5138.71514673731,11538.5077396036,6057.05348307459,11236.682593941,517
"336",12923.0071881111,5945.64938566178,12937.9556944736,7152.58032275264,12576.1470061954,95.3333333333333
"337",6491.4302671093,2996.0551780019,6509.55563289149,3395.30509571781,6231.01028544015,158.333333333333
"338",10199.7686624018,4531.90192559243,10216.4287319333,4838.81543550232,10001.1801333777,164.333333333333
"339",8724.0434967932,3911.73231981623,8841.83735909409,4155.22338866237,8505.77352743605,139
"340",16483.108746608,8614.13569267539,16627.6438259334,8840.74215202376,16265.6830924378,124.333333333333
"341",21920.5038121671,12972.6204305099,22143.2798303907,13356.6852993381,21307.0727498694,112.333333333333
"342",13243.534594244,6653.19888446023,13581.1720576777,6727.78429353173,13023.7233987725,91.3333333333333
"343",10354.3786338408,4710.01764745813,10472.3871970921,4666.945798703,10269.6764903836,161
"344",11755.0448398517,5608.77151054542,11753.9650037414,5291.84528173504,11549.4161832867,81.6666666666667
"345",8355.62563598276,3854.529182144,8384.83584303577,3654.08173485446,8268.79315540349,79.3333333333333
"346",27813.004362471,18361.5671183313,28522.2625986134,16755.9531588175,27716.5756651315,172
"347",20902.2641070258,12899.3597617464,21300.5674293505,11607.4574351502,20813.7789307669,98.6666666666667
"348",87133.168106886,47281.6688172044,92268.9365080466,36790.1306174084,87074.3089939218,15.3333333333333
"349",23037.4402148428,15292.6600993265,24215.0757532567,13705.1201071105,23142.5076957995,465.666666666667
"350",23315.9349614092,16021.5230769879,24621.6090183166,13979.8006080507,23731.4447548939,156.666666666667
"351",130443.21538073,97599.0903394365,144084.144359056,75771.4396793553,130163.012856116,28
"352",38356.2029250021,22907.7908545346,42905.1508701885,21233.8233608761,38304.9435808491,332.666666666667
"353",41640.5461126829,24473.7638120068,47025.4079537718,21968.1975573599,41320.1326009545,107.666666666667
"354",22494.6336935293,15158.2333729805,23642.0960097934,13664.2747580254,22235.6748722074,93.3333333333333
"355",13030.6534095077,7200.67846888707,13636.9365173238,6418.55613204453,12856.8001952613,331
"356",20977.8861089725,13894.470527323,22161.0077751364,12301.3727388802,20530.1791910124,92
"357",14789.6601605199,8219.11043382928,15576.7134297668,7468.4876688691,14422.6607587497,157.333333333333
"358",41688.8623082369,24557.8269878647,46300.8081712156,21965.7548730235,40624.2059411511,118.333333333333
"359",69684.0633159889,39123.6159026225,81846.7269928492,32021.3809635005,64996.805762509,309.666666666667
"360",53169.574609754,31648.958221926,61949.601553404,26696.2738435855,49343.7538125773,36.6666666666667
"361",17894.6556374412,10897.6251234861,19227.3614875265,10120.8411615064,17302.7986201556,18.3333333333333
"362",41764.4263038654,25224.9364910917,47172.6418132036,22849.5560798039,41227.7351420898,22
"363",15764.7062316926,8834.71073293861,16356.3567822219,8597.13117031829,15329.4895770898,346.333333333333
"364",13240.6608336408,7275.9298650707,13989.2556604852,7051.19842228413,12712.8199880255,49
"365",14109.3720645928,7853.01321834818,15129.4451666175,7739.67411019755,13868.3542366914,178.333333333333
"366",24259.7760395919,17034.1758843455,26256.4921236174,16964.3135094648,23692.9554775722,91.6666666666667
"367",18814.8426931915,11484.657788947,20373.6646773144,11485.0049045337,18106.4589151553,303
"368",22786.6172641629,15158.3902614535,24337.1338335992,15270.783671295,22142.9892058141,255
"369",48960.3521659647,27426.4515015915,60991.2279201773,28474.2475812747,45136.1540852733,64
"370",27748.4366897423,18541.4694411687,31342.0851873202,18968.848627636,26666.6404552121,38.6666666666667
"371",24061.0349807679,15769.657084055,26189.44562069,16226.1222102359,23556.701710067,266.666666666667
"372",26186.5132390951,16993.3852990715,28177.2892111566,17607.7097788896,25365.335099182,198.666666666667
"373",21311.2117801681,12971.9427554068,22707.7083106401,13381.0548852809,21064.0839727052,188.666666666667
"374",20489.8694785777,11823.7146356899,21487.4853138665,12355.8099478649,20334.6998399311,26
"375",16292.561720606,8601.95351693959,17136.2406119712,8866.23217430188,16223.5507804565,29.6666666666667
"376",11635.603278459,5428.33442824493,12369.0108804211,5927.50932347628,11521.3499815407,138.666666666667
"377",20346.3382143883,11096.4629956327,21019.6377005712,12228.2653217956,20035.2362228141,126
"378",36169.5685900761,19740.5808395127,41244.721313413,21436.3268060169,34939.4018797265,81
"379",20487.843277037,10991.8351520998,21067.1352753759,12400.5326828685,20509.1125943105,786.666666666667
"380",12254.739656511,5589.59402423159,12600.6969341071,6082.43187969253,12323.182987502,78
"381",10811.6752419934,4739.46116139151,10847.3154026647,5025.94724878846,10830.3239364434,245
"382",10043.8422143347,4381.14552698656,10009.5923377925,4612.33333333333,10083.5349511267,314
"383",10698.5813932835,4664.04024849848,10576.9557074532,4914.64972844589,10758.5700693593,210.333333333333
"384",14865.8417763807,7274.70427921727,14787.3090148758,7534.0628051967,14928.1446263771,164
"385",11289.6589165701,5060.47949310192,11199.9166133157,5206.22713314364,11301.1237144252,123
"386",21947.8866373956,12209.6288166842,21227.9290492496,12926.6927486241,22120.9118437578,163.666666666667
"387",15303.5409593832,7418.33493930471,14820.0435905234,7593.14046492047,15350.1790421985,30.6666666666667
"388",2279.47939106814,1985.19910081664,2160.16621988197,1988.21093580398,2344.34505946602,72.6666666666667
"389",11406.0775373929,5127.92403025592,10989.6686597071,5180.55346779093,11553.0337979622,168.333333333333
"390",19680.304133643,10422.951153763,18967.4869406238,10706.6602701998,20314.3023156957,282.666666666667
"391",25288.1332843541,15119.6514018291,23909.9145447117,15241.0675180743,25785.8373180103,105.333333333333
"392",20915.2177586992,11707.6007463223,19892.90515868,11466.2360006493,21293.225126022,302
"393",15675.6375099041,7859.89153669926,15004.3783745013,7744.80275423999,16122.0913495758,235.333333333333
"394",47869.8128041958,23443.2297142704,43302.1578432436,22957.53228267,48940.3416975145,41
"395",130669.1209935,78544.2291279382,128006.104427715,75073.1274972638,132218.152027848,137.333333333333
"396",20297.8373253264,11584.9492511523,19511.9070843712,10748.2617787087,20506.1809181833,182
"397",20484.4060816228,11850.2894190747,19557.1351006068,10440.3245950447,20483.3359613308,16.6666666666667
"398",42386.2950431531,22552.1099401461,40738.8535420405,20778.8255687847,42443.362100645,21.6666666666667
"399",15817.2364305554,8275.13786512053,15131.3840676261,7438.05710819664,15816.4794810865,52.3333333333333
"400",20386.495970117,12051.1524060503,19368.11996159,10214.9131914439,20372.1068273405,434.333333333333
"401",79251.7339550708,37656.4051130962,69913.7083493425,30647.3267177311,78893.7809742079,59.3333333333333
"402",94219.8646376376,57067.1760394548,92222.8868522001,37770.014198341,93536.6668450938,197.333333333333
"403",50986.9782920053,27926.3849587223,48056.6120675137,22497.4698049305,50744.468960271,94.3333333333333
"404",110464.143481199,63957.1291675543,102529.143921582,45716.4626620698,109703.508224778,81.6666666666667
"405",92070.9253200858,51485.2180014911,86609.4973764262,33181.9242491655,91734.5158317012,51.3333333333333
"406",63629.0978527078,32584.4469033824,57220.0599980248,24482.5429559336,61328.1607305882,223
"407",56735.1338232843,29839.8040436808,48862.0466859736,22409.259269887,53979.4135035704,239.666666666667
"408",44886.5842145772,25288.3472919194,41726.4585102026,20460.569662056,44579.3091337451,237.666666666667
"409",117515.801074043,71780.8632555728,113041.759898616,51163.1583858182,114918.879102834,58
"410",56478.3190589142,29165.6691562544,48234.6923518956,22135.7803116319,56383.0611678211,69.6666666666667
"411",226399.199099987,115117.702123372,186717.731741207,98625.9024931227,224097.641536769,26.3333333333333
"412",136404.393337431,97027.0457242728,126417.738674298,63956.1103407221,134614.45002918,508
"413",107849.769861892,58876.043894377,87120.8322409814,32954.2707257164,103441.134581876,57.6666666666667
"414",49264.6279190186,26313.8079320735,41276.8097142098,19457.7325872864,48607.6915750262,245.666666666667
"415",13422.4426743653,6830.76572786458,12128.5135856811,5261.19012117538,13305.3448384277,135
"416",23116.9911779425,14510.4380694715,21092.469303575,10885.6098393457,23215.7959049038,86
"417",19283.2686124499,10879.8279153098,17252.452744296,8392.29220244428,19529.9146772855,337
"418",29630.4330296654,18868.7603928701,25954.5567500881,14278.940406054,30723.9218300914,40.3333333333333
"419",65941.2172503647,30596.3795183017,48582.4622875837,21396.7140525126,67466.3334851396,165
"420",70103.0534249771,32025.8541882444,49637.3748626278,21427.9438361781,72049.7188872985,35.3333333333333
"421",85888.431518215,36596.2710674749,58989.8227459911,22722.7799478033,86549.1633961644,66
"422",42544.3344435201,21757.9174477487,29829.1038451263,15942.7533527627,43738.7531133064,22.3333333333333
"423",125010.628722055,64420.2823116982,95914.8307340459,36316.4909501383,126042.079153174,26.6666666666667
"424",62727.1716031367,27669.1918833457,42433.3743488795,19071.8419697212,66249.4749832463,295
"425",275557.54545651,218769.709023384,261204.703908407,117995.025308828,277064.561456487,63
"426",112569.33748273,54656.145159559,78982.2005806083,26488.7023167201,113416.719533464,85.6666666666667
"427",22160.7846002463,12584.1298248103,18394.0430761216,8402.1208452566,22592.364724645,89
"428",16364.5543655477,8375.82203667231,13970.2443213096,5876.45953834462,16905.4809449562,50.6666666666667
"429",11010.2111122079,4998.46199475618,9275.37375360497,3690.23562976315,11255.7671583,7.66666666666667
"430",29389.5614258854,17671.6082236713,22561.6691770943,11608.3401073593,31332.6491458666,872.333333333333
"431",29855.7521267125,17622.8957405027,22184.2990129134,11368.1968472077,31320.9154399785,707.666666666667
"432",24753.6374705046,14780.9305326203,19658.0138681823,9298.59530363559,25964.9019208832,374.333333333333
"433",16961.8663841995,8595.47862451355,13743.6699317099,5910.52212531081,17500.5621327675,73
"434",15417.6846714958,7699.04306255554,12375.4632972133,5199.84367733757,16152.2544146915,32.3333333333333
"435",15308.1461404317,7704.14477998451,12293.0540881718,5197.77854563274,16065.6999306472,73.6666666666667
"436",11707.4733115801,5436.14405156843,9902.60792996602,4064.6693258802,12352.3273317355,73
"437",15581.8799486319,8042.47531851651,12561.3135590893,5452.70254206852,16263.4336152984,101
"438",15493.613742259,8050.11776560978,12502.0092109693,5504.87192382801,16284.5585989465,283.333333333333
"439",9452.53511149461,4374.19057437062,7021.03840693433,3202.04212231373,10038.5543192212,145.333333333333
"440",14624.5414698421,7465.76353936089,11453.2284800137,5121.69943839893,15447.6130146168,91.6666666666667
"441",7317.68205109944,3582.55171751312,5358.04827819397,2644.78038417633,8211.09825208761,136
"442",27381.3913134551,17918.1601073338,20638.7650181902,11476.1239558426,31114.18121819,145.666666666667
"443",81225.5795342042,40220.0040324952,41711.886598821,21520.5506912949,92588.68303142,136.333333333333
"444",23439.0908657337,15232.7782923611,18601.6213721138,9926.72334707446,26057.840019861,18.6666666666667
"445",26767.3041124727,17775.3976623,20528.5426718736,11827.9050844928,31230.0858655351,35.3333333333333
"446",8884.92396197989,4162.74288793242,6329.08060374156,3118.27720554827,9964.26429675793,127.333333333333
"447",19580.5011982551,11719.3670989126,15242.666644108,7938.28970968593,21421.0719898761,45
"448",20389.2624121762,12322.8902047823,15669.4849615707,8217.00029252763,22184.4564094647,66.6666666666667
"449",56398.2215610417,30480.2124175442,29227.5072159456,19305.6429513659,77426.5370678942,181.333333333333
"450",187266.915315318,105727.590677631,123502.246416137,72990.2283725005,246255.116905814,90.3333333333333
"451",21150.7027875428,13695.71135884,16527.6512164482,9047.6873504987,23910.3869471149,312
"452",11557.001612424,6005.37552831866,9655.90989693867,4629.54712538973,13029.5746594324,274
"453",17615.4869131306,10556.9290417487,14106.3062347055,7629.33186573266,20308.047245344,93
"454",19698.8411567235,12644.5777979633,15415.3326575968,8681.08630894889,22314.4458484994,83.6666666666667
"455",16445.4614007075,9572.56623158069,12999.1526265263,7277.42118703789,18942.4914335701,136
"456",17005.0857871078,10398.5648403276,13641.5774503934,7446.14489750937,19567.8322364059,38
"457",19961.556299604,13276.4881495879,15657.6945550054,8769.29647886042,22608.3250975317,85
"458",21887.9072707978,14936.907848708,16898.3229481149,9574.68248978315,24804.2109077091,25
"459",10090.4667576143,5042.70875206525,7548.83397104499,3758.14956222646,11208.1810052123,98.3333333333333
"460",11267.9559364512,5806.80603010268,8720.90181785634,4298.31264398949,12628.7748004481,151
"461",45371.2323130881,27185.8863485689,24773.1753864952,17436.4215439919,64824.2812922885,93
"462",27143.0888549679,18846.3242176312,19582.9972446484,12214.1510867948,35740.6554935013,112
"463",5499.55850263095,3037.00459583819,3274.28124818131,2355.52227484213,6678.79259959751,121
"464",6813.17566922608,3521.65355247744,4133.656007322,2602.11160211605,7995.77086971512,87.3333333333333
"465",3620.33415581719,2532.17883752677,2157.69235170546,2008.58867466374,4573.06508712442,473.666666666667
"466",7859.34875877981,3924.46266768352,4810.03560076604,2751.17707580679,9052.49572367792,45.3333333333333
"467",10578.3004778729,5172.31322564695,7233.50110231587,3686.47313854513,11517.9005721627,74
"468",11047.6328863912,5460.19347581343,7877.49839263534,3904.63283986454,12160.8085987691,102.333333333333
"469",17121.190502787,10250.8404232146,12572.3246746775,6674.57744777499,19614.8411976379,19
"470",15459.0904998957,8707.79875046895,11271.7557912603,5595.25018778878,17174.3914453948,97
"471",9049.24373016542,4540.13223578757,5867.05756795881,3085.65749978092,10224.209053744,71.3333333333333
"472",7043.9097680879,3661.81990405642,4197.68580017034,2619.17134263957,8329.86073927402,49.3333333333333
"473",6194.14659183194,3395.85424260701,3587.49835174973,2429.34459775337,7318.45857558206,128.666666666667
"474",12171.1659255146,6528.57003151958,8891.5030986795,4402.01500627504,13947.6310236922,255.333333333333
"475",12419.8151009726,6840.23472776957,9092.64428724238,4521.5954489547,14149.1628033106,99.3333333333333
"476",5222.54662513703,2968.61390875227,2872.78138068937,2232.57178322278,6503.97597324847,291.666666666667
"477",10461.1202685955,5182.34669571536,7004.38634717296,3582.13448914233,11690.8193025412,443
"478",11389.8985648545,5914.47429983463,8189.26644222818,4027.92189117021,12948.7185599402,95.3333333333333
"479",11987.1247017349,6347.19915650488,8492.98391936795,4238.54697501972,13955.1049209755,30.6666666666667
"480",11199.7216717662,5586.20380450015,7708.25133804703,3903.81251748592,12597.8797901293,24
"481",3730.07316869834,2570.93122224929,2052.49117902587,2008.36114091884,4804.4688415604,70.3333333333333
"482",12930.9131182051,7122.68554728365,9429.54333110727,4684.86176707124,14817.8851348769,51.6666666666667
"483",8255.34691753486,4033.72784935767,4746.00278148204,2825.16124174321,9660.03162394304,30.6666666666667
"484",6807.08603821276,3473.79942491806,3645.64743983548,2590.43631401881,8068.39733422413,149.666666666667
"485",15768.5895289462,8801.41736799618,11301.7040031655,6047.29344143389,18067.2281491442,59.6666666666667
"486",23980.572330487,16835.1610775852,16668.393594411,10374.1768920586,28616.1258342792,118
"487",13054.9491059524,7263.55739433948,9744.37849631201,4922.73912463509,14872.7995105273,266
"488",11526.0229712632,6069.59576374632,8399.56576406396,4502.9996406484,13087.2587473788,91
"489",6119.00374230029,3360.28532684852,3515.31273820677,2587.3738029184,7284.1907662103,182
"490",15886.3554351524,8906.29831808581,11440.8545483396,6463.43415792451,18091.1989480981,177.666666666667
"491",25116.9711527737,17859.679765609,17231.46667852,11915.2752452399,31067.8664680285,105.333333333333
"492",18495.6501995609,11465.5242823372,13182.4551792346,8173.53649611896,21028.4517740935,115.333333333333
"493",20479.6665849958,13351.7738288383,14396.7501323816,8809.9151209973,22865.3647923949,91
"494",21387.5822213092,14297.067481292,15135.3601525863,9922.5096142965,24356.6850108954,55.3333333333333
"495",34738.3763412654,22490.771253899,20840.1328399768,16619.2272458916,48163.0954426251,34.3333333333333
"496",22122.3531539451,14860.164065711,15550.7696610277,10652.5030494778,24779.7543328094,83.3333333333333
"497",26618.2351268187,19205.3632545189,18822.6155564091,14322.905387337,34998.2636574745,80
"498",28370.7994431529,20902.6374035449,19784.6907787258,15978.6553509475,41241.9690936405,157.333333333333
"499",10582.4804627062,5269.1455123274,7295.76834686425,4575.62008869657,11542.0232198419,99
"500",10590.7509270032,5382.70018861449,7693.08849669526,4647.63086888038,11569.2239430998,272
"501",10811.4945038176,5518.10601470742,7995.95500602425,4836.50124070309,11695.9107101956,222
"502",14120.4066352545,8194.72450170807,10919.1119400284,7104.67614378466,15804.6739682842,89
"503",27444.4161055654,20218.5371013458,20125.7173472942,17044.6486618474,37794.7739524028,140
"504",18542.1591286195,12244.0995902514,14107.3995311148,10143.5854461757,20908.9865477786,26.3333333333333
"505",15054.3422401223,8940.39009679882,11702.4747458738,8187.6052648809,17001.9151348005,19
"506",10837.1757974346,5799.01355992424,8399.58469263489,5210.27406423025,11928.8886802784,113
"507",10838.8134906055,5920.38959640715,8468.11833174517,5282.89975828556,11940.4879327554,62.6666666666667
"508",9921.63934991046,5183.72519404503,7547.38405303632,4755.05460441179,10927.7299462058,102.666666666667
"509",10169.8013323917,5458.99249240063,8209.45555761642,5113.92945647775,11343.0006218301,89
"510",41710.0786580933,31738.8902249051,26209.8820262565,26209.4071425215,61060.8562241631,297
"511",18483.0183216061,13377.022503913,15275.6288500333,12186.3088059931,21296.2655199703,167
"512",11437.304196765,6947.90618709641,9997.24402555162,6306.64467573769,13097.1531391606,96
"513",6197.30861335452,3703.5283691918,4660.92749427372,3476.85754757435,7648.68532766101,252.666666666667
"514",10347.4735966311,5819.68133021457,8757.83329938922,5374,11515.1936593277,221
"515",4598.10504207666,3158.98977983634,3601.61168901231,2952.78918815738,5937.69149639728,38.6666666666667
"516",17120.7314603451,12925.4295564173,15180.2724682103,11823.0911039557,20132.0872078164,32.6666666666667
"517",12645.8692182804,8179.62738961227,11300.2291173222,7658.26799581376,14473.2981311952,30
"518",13982.6018054374,8888.51149376367,12253.034100314,8440.48135380198,15816.8350189949,48.6666666666667
"519",16273.5284599599,12126.5341900865,14773.469357914,10873.871596795,18878.2181609014,59.3333333333333
"520",5131.95888478829,3464.45554980454,4245.93307560881,3240.27812421768,6343.85899005562,100.666666666667
"521",11710.3292119874,7611.11227170056,10912.3258210546,7057.94660173664,13748.552155509,58.6666666666667
"522",17617.1962848266,13671.6061246082,16142.2927632993,12054.3307596143,20600.7869841461,87.3333333333333
"523",2876.4684506902,2586.54056861497,2426.44668629772,2361.9992155308,3632.71051702141,133
"524",6104.14427546824,3911.38446635682,5412.92960664663,3583.89281750159,7563.17486808218,195.666666666667
"525",6892.6830119737,4238.79182665346,6042.84646118177,3791.22596642621,8329.03492141907,141.333333333333
"526",9363.43990772585,5297.49330826787,8268.42203481112,4795.41720571828,10755.8913400348,104
"527",7285.42495505115,4513.25850348063,6371.82239647502,3912.29632744377,8526.33333333333,349.666666666667
"528",12591.7196302296,8214.96518880421,11437.0846295774,7154.30076800287,14439.4639171164,45
"529",8640.80293519857,5105.37930965555,7706.60574679178,4507.20250571192,10092.5564994868,43
"530",11411.0597266984,7303.93017262171,10526.0301612814,6023.86095970437,12767.8526298748,57
"531",12140.1005308525,7640.90618919981,10906.296746572,6672.39745074184,13712.3415136936,69
"532",9110.05608354465,5129.67956644857,7859.95897907132,4614.45945746595,10337.5118301796,113.666666666667
"533",14057.2379705581,8874.90173669017,12426.8000328558,8007.80196082277,15812.3597398985,62.3333333333333
"534",13620.218385319,8514.56953119763,11888.0603923605,7449.9265759095,15139.1151592956,89
"535",17229.7249299305,12624.9050768528,15339.734444857,10634.9838492664,19711.5553117178,89.3333333333333
"536",9946.09564909143,5347.20737009369,8399.33770694971,4868.47093252259,10847.1552502347,70.6666666666667
"537",3320.52768534011,2607.91974051295,2668.24005734185,2427.18705684293,4037.66107120166,947
"538",4938.47404956294,3136.43179648849,3731.9804454595,2927.59353928221,5877.62355607281,245.333333333333
"539",10713.037616445,5819.71892274172,9270.80863342292,5444.15201664106,11443.7449484661,22.6666666666667
"540",11707.9570521774,7137.57812927115,10516.7613284784,6815.12656829005,12996.6135109298,122
"541",14643.7248984047,8873.81326458608,12615.516299266,8742.19806724115,16078.9620329206,119.666666666667
"542",8297.28021995452,4564.85197173914,6715.7138053456,4513.95622820262,9094.82788337722,71.3333333333333
"543",16128.3468291265,10234.7796225235,13573.0462234781,9924.15194153529,17004.2049200331,52.6666666666667
"544",10052.7568306391,5202.49182526282,8155.51154941868,5201.33913132736,10624.209120048,259.333333333333
"545",13423.7143233618,7820.28215151519,11199.9306082442,7955.26853411938,14080.8896537386,134.666666666667
"546",26784.8110758231,20971.6273179708,21347.3775551309,21441.9058026938,28853.5223492972,219
"547",17190.1966115116,11609.2357637184,14473.0179206285,12215.9020762289,18543.0148126825,245.333333333333
"548",11435.7383762849,6464.34659189183,9896.2145730223,6851.17602842636,11930.7268506985,226.666666666667
"549",17212.7878695777,11717.1625067187,14487.4124192783,12390.3369794317,18579.4132383986,155
"550",11239.7094308901,6252.68428419676,9524.69735527538,6675.27539534317,11609.3071594727,105
"551",23482.8406006715,18517.4692835059,19568.9646182306,19361.9397602013,24760.8705959696,22.6666666666667
"552",24362.7458552261,19336.5035914599,20506.9889996371,21124.5309028551,26193.9055096637,119.333333333333
"553",148773.733624036,108994.38731438,113427.015713616,130498.404862047,184764.269091121,17
"554",48008.2441185595,36530.6147982318,31041.2191752172,46339.5993149043,56698.1232894598,22.3333333333333
"555",41300.7676096551,30159.0822115738,27431.7096226224,36834.3144811465,45922.1500732915,206.666666666667
"556",28303.6385571655,22521.8887859937,22943.4646198867,26178.1781144503,31869.6056325828,126.333333333333
"557",39869.4185257991,27386.0059693938,25841.8508206298,32791.3958226451,42932.4541675459,152
"558",139080.627100742,105251.945951759,113402.434499968,136654.050826026,167818.208370035,233.666666666667
"559",13955.3300840693,8443.22870092649,12140.6613650812,9671.23934479927,14817.9632464768,177.666666666667
"560",9420.58940295513,5109.95095354244,8067.45319589841,5756.78842736691,10093.1445726963,150
"561",15440.3463345964,10071.6037534104,13817.9959582354,12200.7424101347,16338.2927655289,182
"562",19230.6105257302,13903.2868649246,16652.611198343,16724.571934898,20533.7230245663,143
"563",19279.9625295637,14039.4509604484,17005.9180340229,16991.8977976202,20593.0871712846,23.6666666666667
"564",13884.1672497504,8495.16197260205,12482.5333374886,10047.9526151946,14590.6955979771,20
"565",14100.0254427828,8811.83672713912,13092.5059736939,10870.9962494255,15033.3557916825,70
"566",12321.0000283307,7488.18673896488,11500.4344504938,8721.45085743831,13017.5541379232,51.6666666666667
"567",12693.112786838,7882.96100702132,11929.5610037987,8869.54092569379,13552.9409862328,160.666666666667
"568",12639.4333202527,7936.79168908447,12156.5758953534,8895.78945978269,13574.3848076153,52.3333333333333
"569",13635.4476250994,8599.58580829879,12991.038107552,10123.215578437,14371.681782906,114
"570",26937.3384887667,22535.1450958416,26021.4588134483,29887.4183908076,29668.441961398,359.666666666667
"571",12927.9739988956,8208.67198319816,12888.3182471374,9538.11837654031,13788.9736910961,208
"572",14001.0626741726,8780.51762320399,14004.9816624853,10778.2459600207,14667.1293525186,97
"573",14063.6210460129,8893.70195600285,14169.601501211,11003.6264268726,14807.9909644739,340
"574",16327.1042412486,11831.7800235185,16693.0423888314,15019.4078700432,17132.5981457066,182.333333333333
"575",16276.3640443716,11798.9572286483,16940.2259569059,15043.0635584407,17006.7435926434,21.3333333333333
"576",13475.3376821861,8631.01985464639,14058.1457048724,10893.4338415605,14063.2504706775,64.3333333333333
"577",21948.9519448777,18313.7360038447,23173.8246321782,22950.345344504,23049.6062350749,17
"578",17310.8522051048,13309.0078497325,18787.9736325131,17102.6196137059,18652.3609969994,22.3333333333333
"579",10542.8479049234,6175.97585710083,11170.9608708529,7735.00028029363,10927.1178938243,90.3333333333333
"580",3606.86161592079,2770.82200977299,4300.62682460147,3402.40804670929,4001.14228803815,43.6666666666667
"581",11244.1052726359,7238.64702648784,12272.7243651839,8738.848710482,11709.3892233229,293.666666666667
"582",84380.1950332541,73152.2524813288,107248.360446775,102719.959690538,92931.9289582629,382.666666666667
"583",38408.9230992739,32452.3387421573,48476.3891511201,60800.1646331729,44398.8112218932,107.333333333333
"584",67244.2629795062,63935.3846627107,91824.7529341212,98414.0894008558,85137.6607322854,83.6666666666667
"585",91132.3952224737,78262.061526127,112346.210926544,104914.841895499,102911.235168363,390.666666666667
"586",91831.7189972678,78827.8764235527,113385.223152878,105245.069719572,107699.707182701,368
"587",28224.4811442001,26139.3311036387,41189.4356017475,45079.426712608,32402.1847227769,23.6666666666667
"588",18707.7209473138,14796.3150331842,20930.6781816194,19369.5940230645,20458.0850459094,39.6666666666667
"589",24367.5825276242,21759.8721204592,28885.6243323034,31945.5507362509,27224.0025816449,18.6666666666667
"590",14369.8527261073,9544.27603740124,16172.0377404264,13378.1532554272,15331.0315692822,48.3333333333333
"591",19099.932914103,15227.2960785781,21564.8293865644,20234.6543666627,20531.1252243472,90.6666666666667
"592",13797.3092264076,9168.30065412167,15630.9479079504,12707.2561172337,14733.889117032,48
"593",12990.0987248245,8700.09537577832,14982.6620161977,11873.7685195308,14007.7101544891,307.666666666667
"594",18949.6917598693,15263.5634638106,21876.2173134777,21350.3089437769,20415.7985080974,95.3333333333333
"595",25590.2190177473,22961.2572990097,32284.2705430246,37018.4728802929,28426.9734522582,188.666666666667
"596",19347.6231940179,15570.886199813,22051.8401205333,21124.412767317,20596.6129694002,85.6666666666667
"597",90011.6082237524,77866.0824489192,111783.542915243,103596.326026401,102344.940746254,340
"598",93434.6669612108,86857.648185529,118139.863998981,105451.479555186,111184.189649589,281.333333333333
"599",31990.3757782061,30555.9127227227,45025.8388788075,50864.4268789861,41285.4031984234,82.3333333333333
"600",22708.7979134878,19861.0764228326,26347.728665499,26477.6328140698,24425.9087086106,45
"601",22255.4674959555,19076.9811594723,25278.2166819942,23811.2593246546,23910.7354546507,43
"602",16244.393562294,12216.2561959563,18113.2004609058,15132.0902143885,17166.7457266693,57
"603",24651.2765023965,22235.3836188326,29019.353382314,29512.7256333778,27469.1380323703,69
"604",23741.2677949264,21245.8633054405,27463.7261031167,26296.5092142141,25538.8846472876,51
"605",48070.6427676351,47122.7359379716,65286.8235881203,63942.2929202711,60948.2679415747,107.333333333333
"606",18431.4141413579,14794.7703459775,20534.357609417,17698.7956365925,20009.883036865,85.6666666666667
"607",3286.2493064105,2733.03258263987,4086.90907066377,3091.42456096514,3645.0372949091,89.6666666666667
"608",6324.18490138073,4121.58334152829,7628.04598547983,4673.46752201911,6940.14294894082,64
"609",11237.2555176886,7402.42157749987,12604.1728936138,8401.29374147232,11678.9237322394,24.6666666666667
"610",14190.0034619441,10120.5240056017,15987.7567621619,12063.0469528027,14993.041824276,9.33333333333333
"611",15828.4300382424,12270.0715535516,17924.9849356305,14187.45404274,16495.4164479183,7.66666666666667
"612",10836.8785207632,6853.95715851961,11639.7301244956,7599.53195023418,11267.439832541,38.6666666666667
"613",17616.8961083518,13693.9788489361,19573.3866676521,16239.5941229826,18655.9909182576,1077
"614",6807.44399801283,4196.40114197072,7859.85865016307,4716.48934699616,7042.80382398047,35.6666666666667
"615",7041.00291486213,4326.01935854426,8218.90749847203,4865.85375521975,7177.48097352148,43.3333333333333
"616",7571.83307904136,4544.55914720162,8468.5782072341,5061.22800935366,7694.28943155262,71
"617",14474.3091850294,9566.7507727502,16213.0674930485,12048.9198782143,14615.6132062299,930.333333333333
"618",16075.0045367205,11451.3535925272,17921.4636420061,13903.506144988,16169.291043455,149
"619",9362.78916744722,5199.8423704303,10518.1247680474,6178.31722453459,9398.76177359876,102
"620",11087.3821022211,6821.20008650014,12494.5764726156,7965.74466985584,11078.4436861345,136
"621",6315.26860422626,3824.81012013395,7738.99557279838,4532.43146189156,6287.39628956966,54.3333333333333
"622",10419.877957118,5869.84976170694,11537.7636124938,7244.69511080114,10324.3235788565,700.333333333333
"623",14723.0040930751,9432.06026688988,16952.0514689949,12293.0825159864,14488.5204196731,51.3333333333333
"624",11723.34172003,7283.98402322755,13879.6334097619,8588.98042942093,11614.7258245901,45
"625",14482.9135791797,9155.7465402921,16704.1367978089,11443.9530346365,14318.1384455515,43
"626",15873.6783869188,10417.8627411368,18642.0735736683,12924.2866619919,15575.8523598244,57
"627",15344.146623304,9478.92862247319,17334.7686103452,11264.4718844153,14882.1025747345,69
"628",12416,7271.89479352831,14126.1345390926,7960.98232604904,11690.98226079,47
"629",21662.7719962168,15891.8473629469,24912.7672678001,17653.2678538569,20645.7117935992,282
"630",24581.2741083982,18881.7418957336,31180.4461371999,21033.5186637327,23642.4547564436,100.333333333333
"631",16256.6902651109,10120.1431552117,18729.5219656849,10880.3452475273,15665.1642612345,82.3333333333333
"632",9840.60460705908,4995.91800515481,10836.1882242041,5138.81150104319,9336.03523572042,68.3333333333333
"633",7882.2516572022,4036.00864905809,8641.58648619355,4099.18496526869,7282.38611226732,34.6666666666667
"634",6449.46042504833,3451.26689611213,7031.1490988149,3453.47215516037,6025.48207849218,35
"635",5380.95222513201,2935.73590744055,5800.25311739648,2817.09476342388,4711.02357578736,338.333333333333
"636",10058.7525212399,4845.80473127713,10313.9921966421,4574.07317681011,9415.94358872367,1305.33333333333
"637",3977.80457879956,2591.36837331096,4016.72419151024,2346.88591737161,3577.29966816596,43
"638",7285.25409283637,3656.16913466018,7258.87332858149,3136.35408695744,6879.2965050954,57
"639",7015.35924063342,3510.78930814338,6811.99837004827,2952.38613212413,6493.0651290796,33.3333333333333
"640",6881.12046008521,3399.1922194857,6234.96138695859,2746.30423154936,6291.09557335358,106.666666666667
"641",11536.5484023133,5556.65762717579,10847.9445053412,4506.55339678068,11199.9057003601,194
"642",22685.0456544867,14105.9803833908,20495.3073084357,9522.77518523718,21377.194475498,149
"643",9404.321143931,4383.03376115204,8248.53753885701,3286.75287903779,8868.05816549354,102
"644",9992.61178897742,4612.40996168841,8418.21259266164,3412.76572323724,9452.13607872769,72.6666666666667
"645",12735.0909152165,6307.37564083626,11013.4142728979,4551.9107765565,12159.1576352644,87
"646",14371.4802572891,7325.30646683886,11890.9955540173,4923.24814598816,13863.5913532176,603.333333333333
"647",20991.2312655181,12397.9386564251,17003.6962329477,7804.92092180908,20504.7142222595,516.333333333333
"648",25964.4540033785,16723.7947703193,20844.4407112856,9946.07099482068,24770.0166568528,45
"649",9114.65181239919,4235.11252588935,7033.94508469451,2938.29399662391,8706.3400097474,43
"650",8498.88752293187,4036.22946756355,6642.74148178947,2810.42413039104,8318.75908433193,57
"651",15131.274939234,8032.20157794068,12266.9619029242,5172.6170182223,14788.5650700988,36
"652",16168.7610588498,8614.45020686506,12967.4872038182,5580.78466109503,15675.1392927387,144
"653",19231.2644020147,11082.3601013239,15324.8722668289,7238.80253708643,18793.3634707265,59.6666666666667
"654",15578.6590306434,8385.57579609373,12582.1448825067,5393.25043275392,15393.7144532912,422.666666666667
"655",8252.52535452387,3863.79152101958,5981.57676528802,2703.92749920295,8018.54614165656,100.666666666667
"656",4586.88849090736,2659.31069064556,3058.09327500969,2119.55441566974,4481.41054333576,80.3333333333333
"657",7569.07413642174,3630.00582683148,5360.98464576096,2616.9036739057,7258.4387578204,52.3333333333333
"658",7120.25830791573,3520.15081044397,5131.66131062566,2618.88943365118,7033.36907767874,614.666666666667
"659",15305.0280268142,8190.04023305226,12196.353705989,5568.76497991501,15132.584431884,204.666666666667
"660",16281.8564004794,8767.41207070234,13024.096306136,6310.97072303387,16207.1117153364,45
"661",15866.2672428914,8443.71104575606,12578.885063882,6056.2247304247,15789.3926012603,43
"662",11749.3807610227,5702.15263852736,9693.35009117201,4527.99240035049,11637.8455957903,57
"663",21283.5866266965,12922.0384169733,16513.5421559548,8956.844624209,21082.2405713583,69
"664",21599.1215858891,12971.1758717088,16977.2305788884,9544.24499608741,21176.6609829117,113.666666666667
"665",16172.4183662499,8267.26601834923,12886.5666846989,6999,15880.9594764196,61.3333333333333
"666",19205.7139154395,10439.7919026428,15176.1664304252,8631.17078532992,18821.3587664278,387.666666666667
"667",5227.71908569512,2706.45914057447,3501.49316807846,2539.4067338817,5071.41900679054,96
"668",14798.31249281,7408.6048809952,11888.1669220534,6802.70453779853,14443.0457434331,54.6666666666667
"669",15839.4465971652,8126.52383111291,12930.2173442799,7427.86451901456,15548.6228202569,62.3333333333333
"670",24117.7449405184,14887.0767144588,19679.2030839415,13619.8484758741,23679.4323925701,238.333333333333
"671",16383.9617574179,8450.15000329338,13633.2370811048,7823.76971971753,16204.5531643376,1272
"672",10654.9013813439,4788.94798785642,8466.4811157087,4560.58557795025,10444.3443552419,45
"673",15258.088701801,7598.91894320264,12530.8708144897,7321.96639949817,14841.2855883114,43
"674",14369.772345194,7238.45020331225,11689.5904486086,6674.72925254749,13958.1063607701,57
"675",21689.2034726511,12337.0585850838,17283.9435316102,11258.5741018569,20862.6754817158,69
"676",15129.0864300649,7447.47924598283,12569.7332746498,7244.34902673357,14609.4831989999,55
"677",10764.951052589,4727.83165461405,8732.1227925869,4623.02617328349,10449.4428042804,56
"678",15567.755935989,7617.2860919431,12823.1660922122,7399.76251440391,15134.5880370097,75.6666666666667
"679",4497.20436532611,2475.65070339176,3076.58648773217,2361.17055083769,4265.53635982778,77.6666666666667
"680",8471.33734683296,3757.9571639337,6459.95127698873,3502.82144662585,8247.86003694491,67.3333333333333
"681",9331.17345866226,4043.49019053541,6966.77409083192,3750.85334718558,8893.28805246623,281
"682",18466.3380732558,9199.18558287783,14804.0291480511,8391.94677002608,17362.1471872069,177.333333333333
"683",20708.5614262679,11299.9847563111,16359.3657764065,9541.25359165303,20279.8736485486,708.666666666667
"684",21613.2247426618,12174.9294462986,17004.2056737873,10282.0856091697,20665.4338982009,45
"685",8714.34339381399,3827.36327601838,6320.28568455886,3395.50526634764,8370.60177534808,43
"686",15137.958088605,7447.41232817381,11889.4489788144,6277.77166016268,14690.3330479952,57
"687",15455.708249135,7598.39980471103,11888.1343329624,6320.47283245621,14965.7469762061,69
"688",13981.5018898671,6829.63760219328,10847.8914852233,5274.26468405011,13458.3998105739,113.666666666667
"689",41258.1327889989,21095.3740152673,23174.1232739392,15538.3083629053,35610.0873155091,134.666666666667
"690",186229.694820247,101121.383730736,109806.813913137,63797.6026692297,170682.533334696,219
"691",16360.8351870871,8523.15861278597,12416.82354441,6330.13786577492,16072.7370482341,109.666666666667
"692",19523.1711520348,10506.35363152,14205.428647421,7585.69217860291,18649.4436053648,311
"693",22673.3439856758,13364.5089022133,16168.287786887,8706.61103110001,21427.3778008404,198.333333333333
"694",21434.8682482144,12287.5396339379,15114.8774122181,8215.47628940588,20509.2246545407,127.666666666667
"695",18805.8486170097,9577.39082749395,12951.233333021,6924.19118794026,17628.1507948309,113.666666666667
"696",13575.5352046541,6415.34460111922,9660.32062138335,4624.39013319557,12814.3276937799,45
"697",18235.5905323599,9274.75097737205,12253.8150461197,6565.9769754333,17001.3333333333,43
"698",22306.9969233428,12971.4982364153,14987.2577478871,8441.3016039715,20915.3390933965,57
"699",62333.9740716957,28141.9496208106,24789.3630904675,18448.5431067406,53526.9668933631,69
"700",10768.0086424962,4830.9392406626,6901.66607275955,3730.42273005368,10333.4485785706,55
"701",13989.3320070256,6909.33333333333,9949.15026506811,5086.35312283396,13370.1556238273,126.333333333333
"702",21181.7170201731,12449.0579399115,14534.8488959248,8711.86261369209,20525.5071393812,275.666666666667
"703",10091.0981899089,4641.99777283655,6621.18906675257,3694.31687063485,9967.51812627251,107.333333333333
"704",11299.9116718874,5379.22550870867,8088.8614442355,4553.23095827535,11244.2645431,244
"705",7290.02773185841,3549.80641653217,4388.11022223652,2926.66790141399,7280.32436634273,248
"706",6836.64225020081,3409.35991337297,4072.66249534777,2850.08628275916,6901.77720628063,315
"707",10027.838173544,4797.03143254991,7035.0493808716,4112.00192047779,10291.9443802349,25
"708",7895.3511181841,3953.29137894892,5452.08076470277,3410.46114268023,8348.66506385675,74.3333333333333
"709",5362.24373686062,2982.55515052804,3517.34612555071,2676.99380438483,5852.38957614417,74.3333333333333
"710",12588.3461119707,7238.90287822479,10659.2273172976,6188.49566869504,13797.0976040328,57
"711",9367.46660059821,4799.3039087752,7467.8402649879,4457.87346357594,10383.672138162,69
"712",7746.46625259128,4198.73184886411,6277.6907926908,3921.47891294408,8986.93160239426,113.666666666667
"713",10332.8818477918,5589.39846912204,9362.26069471121,5375.16076043555,11597.9063195768,134.666666666667
"714",22217.537811584,18259.4779453403,20622.0336189845,17587.776183886,27559.5804207306,219
"715",41723.2861038106,36355.2707968326,37655.3195140176,35043.7637797344,72057.7842988411,245.333333333333
"716",16172.7906557184,11965.4879317558,15765.084329264,11874.6881017044,20512.4351662374,121.666666666667
"717",18634.5812225682,15158.0092521108,18653.4703435087,15158.5178589205,23910.8744706708,242.333333333333
"718",21930.7967473543,19324.6469762828,22268.0435772553,19923.9203427821,31371.6000889323,105
"719",10838.3808189214,7139.48142891309,11103.9984754774,7360.5019848586,14010.4129479727,51.3333333333333
"720",30896.5690915316,32138.5138655971,37697.0373463925,37005.3913431577,69929.9944719299,45
"721",10274.9165574804,6677.69216610479,10810.4891457044,7226.13809905849,13443.6032708676,43
"722",8699.47331478289,5439.27328200847,9508.34138302187,5917.41001019793,11657.3382927838,57
"723",13691.0972365257,10055.9544782155,14473.9511198275,10885.1026568888,18723.0297633297,69
"724",10837.5643493867,7296.7219023369,11311.8569306414,7721.05837898043,14412.8480144229,113.666666666667
"725",10936.1893323762,7299.70770892457,11369.8625818221,7810.34157554974,14435.6989697151,134.666666666667
"726",22515.4935465812,20967.5024239931,23400.2237415242,22630.251503634,38542.7339301215,99.3333333333333
"727",3585.8048012441,2830.49427426131,3603.23145323119,3055.31609668875,5839.73096323927,167.666666666667
"728",4125.2771275471,3042.23269169098,4104.62887878471,3346.1632023315,6257.57013998483,117.666666666667
"729",9253.4471020225,5297.13654560776,8893.42948675463,5692.82721498895,11305.9702531239,122
"730",11888.7407932328,7725.62132965899,11518.2570272987,8222.93176315452,14786.4259397856,115
"731",12981.6398169987,8522.51098463855,12424.1979704807,8967.6047164879,15807.3095586213,72.3333333333333
"732",22187.2559667028,18222.9184917004,20509.6283433341,19339.9384888164,26505.1855606985,18
"733",10614.3041906304,6004.5489720459,9794.07349839497,6477.09226526259,11642.8329566113,161.666666666667
"734",8447.2741076109,4708.78664917437,7283.71764670407,5000.06313666116,9692.3839310582,50
"735",5799.86547543417,3467.77004120004,4556.34757989992,3583.11963521438,6318.62780053243,125.333333333333
"736",10040.0658496192,5259.95305088008,8393.6245012642,5385.33849395459,10463.6939838024,106.666666666667
"737",17316.7677374071,11755.1735194137,14820.2093803022,12108.8845154047,17870.0125767479,194
"738",16166.3285770258,10178.5925971632,13587.6490848834,10391.6164371105,16137.7971046695,149
"739",9704.5984350701,5083.48076919557,7591.57689959314,5108.63219383095,9363.97031530436,95
"740",6065.85401952149,3477.78390230185,4158.81404491223,3457.50033563144,5655.45660789416,288.333333333333
"741",12576.0444035789,7350.07938740495,10444.1399093774,7323.92638494699,11689.7855770785,297
"742",19046.9258342208,13356.1459510495,14993.2435547594,13279.0378150593,17097.5709482236,492
"743",14370.4323689363,8632.03340761099,11315.2001298636,8398.72652297667,12928.1593761077,21.6666666666667
"744",16265.586114372,10393.1304927943,12627.7908679266,9863.26744819731,14481.8037190641,44.6666666666667
"745",15736.5701867547,9963.28684948897,12172.9657478946,9269.68747281721,13844.4243867099,17.6666666666667
"746",10984.3169241979,6175.53456140516,8424.49401005998,5811.04497541142,9741.48460488559,82.3333333333333
"747",13800.8775278911,8292.09266006881,10789.7539570474,7838.90205586187,11633.5749520835,28.3333333333333
"748",9363.90161535988,5034.46501484392,6484.17379084832,4700.53545580301,7571.55483304202,44.3333333333333
"749",13647.0478967151,8240.40825272711,10573.1121393735,7596.69307627567,11427.6254249672,50
"750",15789.4223147866,10465.6464751821,12135.0093103946,9283.94212922823,13139.5533335586,74.6666666666667
"751",1137.20346444653,1747.43803765422,253.836862486913,1703.09792755148,371.30904078081,75.3333333333333
"752",3615.07781804175,2749.96445079302,2349.064020024,2610.58366616652,2689.81184966292,62.6666666666667
"753",6956.72746028145,4349.85878556169,5035.08905555526,3871.4537873637,5343.54848986646,39.3333333333333
"754",9364.8872672278,5476.93925558518,7094.43545290611,5049.98723485219,7215.88618148569,279.333333333333
"755",11541.3212388729,7593.77638679407,9706.64541560368,6828.67618009541,9920.67752335209,668.666666666667
"756",10092.4343806717,6107.06549751554,7994.92232141197,5434.4985308419,7995.83598408168,122
